Auxiliary data descriptive analysis
…
percentage_data %>%
  group_by(Jurisdiction) %>%
  summarize(mean = mean(Percent)) %>%
  arrange(mean) 

## # A tibble: 67 x 2
##    Jurisdiction   mean
##    <chr>         <dbl>
##  1 Warren       0.0977
##  2 McKean       0.160 
##  3 Venango      0.223 
##  4 Tioga        0.272 
##  5 Jefferson    0.277 
##  6 Elk          0.277 
##  7 Potter       0.295 
##  8 Cameron      0.313 
##  9 Sullivan     0.331 
## 10 Crawford     0.362 
## # ... with 57 more rows
…
